{
    "name": "PlayerControls",
    "maps": [
        {
            "name": "Player Movement",
            "id": "1ae77b37-8bd7-4e91-b415-ada94bec79f2",
            "actions": [
                {
                    "name": "Movement",
                    "type": "PassThrough",
                    "id": "74abfaa0-a621-479f-a7f4-ecb83675f7cc",
                    "expectedControlType": "Vector2",
                    "processors": "",
                    "interactions": ""
                },
                {
                    "name": "Camera",
                    "type": "PassThrough",
                    "id": "7af596cb-a376-4d14-a006-4e5cd56ab788",
                    "expectedControlType": "Vector2",
                    "processors": "",
                    "interactions": ""
                },
                {
                    "name": "Lock On Target Left",
                    "type": "Button",
                    "id": "cd0d7a16-1a54-4a95-92ce-8a6c7765f0a0",
                    "expectedControlType": "Button",
                    "processors": "",
                    "interactions": ""
                },
                {
                    "name": "Lock On Target Right",
                    "type": "Button",
                    "id": "d53c78b5-13a7-4ff1-8332-737c7f18f7b1",
                    "expectedControlType": "Button",
                    "processors": "",
                    "interactions": ""
                }
            ],
            "bindings": [
                {
                    "name": "WASD",
                    "id": "2c45bc2a-3ef2-410b-89c0-c0d5a93e7172",
                    "path": "2DVector(mode=2)",
                    "interactions": "",
                    "processors": "",
                    "groups": "",
                    "action": "Movement",
                    "isComposite": true,
                    "isPartOfComposite": false
                },
                {
                    "name": "up",
                    "id": "722a9b49-6663-4ec1-b285-6f27471e82b0",
                    "path": "<Keyboard>/w",
                    "interactions": "",
                    "processors": "",
                    "groups": "",
                    "action": "Movement",
                    "isComposite": false,
                    "isPartOfComposite": true
                },
                {
                    "name": "down",
                    "id": "2be2b1b0-ce15-487c-ab06-2d2c069aff34",
                    "path": "<Keyboard>/s",
                    "interactions": "",
                    "processors": "",
                    "groups": "",
                    "action": "Movement",
                    "isComposite": false,
                    "isPartOfComposite": true
                },
                {
                    "name": "left",
                    "id": "33fdc600-f697-4863-99c9-d1826e4218b1",
                    "path": "<Keyboard>/a",
                    "interactions": "",
                    "processors": "",
                    "groups": "",
                    "action": "Movement",
                    "isComposite": false,
                    "isPartOfComposite": true
                },
                {
                    "name": "right",
                    "id": "e9d6ceae-4539-4b37-99a2-92c9f53bd98e",
                    "path": "<Keyboard>/d",
                    "interactions": "",
                    "processors": "",
                    "groups": "",
                    "action": "Movement",
                    "isComposite": false,
                    "isPartOfComposite": true
                },
                {
                    "name": "",
                    "id": "ecc17b78-5fd8-47cc-9721-07b905ef9007",
                    "path": "<Gamepad>/leftStick",
                    "interactions": "",
                    "processors": "",
                    "groups": "",
                    "action": "Movement",
                    "isComposite": false,
                    "isPartOfComposite": false
                },
                {
                    "name": "",
                    "id": "a2981f80-44a9-4d6a-be18-403365b6193c",
                    "path": "<Gamepad>/rightStick",
                    "interactions": "",
                    "processors": "StickDeadzone",
                    "groups": "",
                    "action": "Camera",
                    "isComposite": false,
                    "isPartOfComposite": false
                },
                {
                    "name": "",
                    "id": "8fe3392c-880c-4d9e-8ef1-f3c734d393e6",
                    "path": "<Mouse>/delta",
                    "interactions": "",
                    "processors": "NormalizeVector2",
                    "groups": "",
                    "action": "Camera",
                    "isComposite": false,
                    "isPartOfComposite": false
                },
                {
                    "name": "",
                    "id": "4ac95784-d1bf-4675-8ebc-4e4c3d4a4266",
                    "path": "<Gamepad>/rightStick/left",
                    "interactions": "",
                    "processors": "",
                    "groups": "",
                    "action": "Lock On Target Left",
                    "isComposite": false,
                    "isPartOfComposite": false
                },
                {
                    "name": "",
                    "id": "5c60635e-ede6-4fa5-a74f-307409f3040d",
                    "path": "<Keyboard>/1",
                    "interactions": "",
                    "processors": "",
                    "groups": "",
                    "action": "Lock On Target Left",
                    "isComposite": false,
                    "isPartOfComposite": false
                },
                {
                    "name": "",
                    "id": "16e92980-97ac-449f-9df2-2a7cbb73c7c6",
                    "path": "<Gamepad>/leftStick/left",
                    "interactions": "",
                    "processors": "",
                    "groups": "",
                    "action": "Lock On Target Right",
                    "isComposite": false,
                    "isPartOfComposite": false
                },
                {
                    "name": "",
                    "id": "df94f178-3c7f-4808-a118-3003f0946c9a",
                    "path": "<Keyboard>/2",
                    "interactions": "",
                    "processors": "",
                    "groups": "",
                    "action": "Lock On Target Right",
                    "isComposite": false,
                    "isPartOfComposite": false
                }
            ]
        },
        {
            "name": "Player Actions",
            "id": "fd708941-b1db-426c-8153-70003b9b5684",
            "actions": [
                {
                    "name": "Inventory",
                    "type": "Button",
                    "id": "6b83d7d0-cc3c-4715-afa3-a308b93df080",
                    "expectedControlType": "Button",
                    "processors": "",
                    "interactions": ""
                },
                {
                    "name": "LockOn",
                    "type": "Button",
                    "id": "b85a699b-4dad-428f-94a0-8be6aea90dc0",
                    "expectedControlType": "Button",
                    "processors": "",
                    "interactions": ""
                },
                {
                    "name": "Roll",
                    "type": "Button",
                    "id": "89d51382-b0dc-4f24-b404-b6c573a2262f",
                    "expectedControlType": "Button",
                    "processors": "",
                    "interactions": ""
                },
                {
                    "name": "RB",
                    "type": "Button",
                    "id": "3009adce-b5de-49fe-9aa9-a36c982279b3",
                    "expectedControlType": "Button",
                    "processors": "",
                    "interactions": ""
                },
                {
                    "name": "Block",
                    "type": "Button",
                    "id": "cbd9fb3f-8245-470e-aba4-6ec475f35311",
                    "expectedControlType": "Button",
                    "processors": "",
                    "interactions": ""
                },
                {
                    "name": "LT",
                    "type": "Button",
                    "id": "c84dfc48-9854-4f12-9522-0f9e26af9bfe",
                    "expectedControlType": "Button",
                    "processors": "",
                    "interactions": ""
                },
                {
                    "name": "LB",
                    "type": "Button",
                    "id": "78f96d70-769c-4cbf-8193-415ca2c7b3fc",
                    "expectedControlType": "Button",
                    "processors": "",
                    "interactions": ""
                },
                {
                    "name": "RT",
                    "type": "Button",
                    "id": "d8652f25-036c-4acd-8436-a7750745c231",
                    "expectedControlType": "Button",
                    "processors": "",
                    "interactions": ""
                },
                {
                    "name": "Critical Attack",
                    "type": "PassThrough",
                    "id": "a64d86e6-d7f5-46b8-ab82-9fdf18f3c31e",
                    "expectedControlType": "Button",
                    "processors": "",
                    "interactions": ""
                },
                {
                    "name": "D-Pad Up",
                    "type": "Button",
                    "id": "664e990f-0ea2-4922-88f3-2cd463dcd568",
                    "expectedControlType": "Button",
                    "processors": "",
                    "interactions": ""
                },
                {
                    "name": "D-Pad Down",
                    "type": "Button",
                    "id": "2104d11f-0690-430f-8f58-1df56bc34557",
                    "expectedControlType": "Button",
                    "processors": "",
                    "interactions": ""
                },
                {
                    "name": "D-Pad Left",
                    "type": "Button",
                    "id": "0ebdcc9e-8941-4a03-90a5-720a99e0e16e",
                    "expectedControlType": "Button",
                    "processors": "",
                    "interactions": ""
                },
                {
                    "name": "D-Pad Right",
                    "type": "Button",
                    "id": "ba2d014b-1af6-4229-a44a-63df28bf255e",
                    "expectedControlType": "Button",
                    "processors": "",
                    "interactions": ""
                },
                {
                    "name": "A",
                    "type": "Button",
                    "id": "b65b4c39-15f8-413a-9f93-050f5dfbd6eb",
                    "expectedControlType": "Button",
                    "processors": "",
                    "interactions": ""
                },
                {
                    "name": "Jump",
                    "type": "Button",
                    "id": "9d022eb3-a3ce-4e44-b8d2-6ff469fb4320",
                    "expectedControlType": "Button",
                    "processors": "",
                    "interactions": ""
                },
                {
                    "name": "Crouch",
                    "type": "Button",
                    "id": "2505afd1-7229-4b63-bcaa-60e9ae9cb8d2",
                    "expectedControlType": "Button",
                    "processors": "",
                    "interactions": ""
                }
            ],
            "bindings": [
                {
                    "name": "",
                    "id": "ccf59924-0698-497c-8df2-96f58f4c33b0",
                    "path": "<Gamepad>/buttonEast",
                    "interactions": "",
                    "processors": "",
                    "groups": "",
                    "action": "Roll",
                    "isComposite": false,
                    "isPartOfComposite": false
                },
                {
                    "name": "",
                    "id": "0fd68e9b-1e0e-4622-af0c-fda3230a30e8",
                    "path": "<Keyboard>/leftShift",
                    "interactions": "",
                    "processors": "",
                    "groups": "",
                    "action": "Roll",
                    "isComposite": false,
                    "isPartOfComposite": false
                },
                {
                    "name": "",
                    "id": "a9fde0a9-1ab3-4e82-9715-1c0ae54cdc37",
                    "path": "<Keyboard>/e",
                    "interactions": "Tap",
                    "processors": "",
                    "groups": "",
                    "action": "RB",
                    "isComposite": false,
                    "isPartOfComposite": false
                },
                {
                    "name": "",
                    "id": "b8700132-f994-46bd-96be-38131a2b1e4d",
                    "path": "<Gamepad>/rightShoulder",
                    "interactions": "Tap",
                    "processors": "",
                    "groups": "",
                    "action": "RB",
                    "isComposite": false,
                    "isPartOfComposite": false
                },
                {
                    "name": "",
                    "id": "672d0775-f0f5-4939-85ac-cbbe589c6284",
                    "path": "<Mouse>/leftButton",
                    "interactions": "Tap",
                    "processors": "",
                    "groups": "",
                    "action": "RB",
                    "isComposite": false,
                    "isPartOfComposite": false
                },
                {
                    "name": "",
                    "id": "8b256abb-d8c8-404f-aa70-a3053d043e7d",
                    "path": "<Keyboard>/r",
                    "interactions": "",
                    "processors": "",
                    "groups": "",
                    "action": "RT",
                    "isComposite": false,
                    "isPartOfComposite": false
                },
                {
                    "name": "",
                    "id": "8d5311f6-9a06-45e4-afa4-e5a4fa05dca4",
                    "path": "<Gamepad>/rightTrigger",
                    "interactions": "",
                    "processors": "",
                    "groups": "",
                    "action": "RT",
                    "isComposite": false,
                    "isPartOfComposite": false
                },
                {
                    "name": "",
                    "id": "37c526a6-0920-46cd-ac2d-6c5c03cebf10",
                    "path": "<Mouse>/rightButton",
                    "interactions": "",
                    "processors": "",
                    "groups": "",
                    "action": "RT",
                    "isComposite": false,
                    "isPartOfComposite": false
                },
                {
                    "name": "",
                    "id": "36f991a2-0183-444a-934d-240ad4d531a2",
                    "path": "<Keyboard>/upArrow",
                    "interactions": "",
                    "processors": "",
                    "groups": "",
                    "action": "D-Pad Up",
                    "isComposite": false,
                    "isPartOfComposite": false
                },
                {
                    "name": "",
                    "id": "e1128b33-c144-43f8-be0c-aae30d493119",
                    "path": "<Gamepad>/dpad/up",
                    "interactions": "",
                    "processors": "",
                    "groups": "",
                    "action": "D-Pad Up",
                    "isComposite": false,
                    "isPartOfComposite": false
                },
                {
                    "name": "",
                    "id": "b15bdb44-18f3-43b6-91e3-f7416e3613e5",
                    "path": "<Keyboard>/downArrow",
                    "interactions": "",
                    "processors": "",
                    "groups": "",
                    "action": "D-Pad Down",
                    "isComposite": false,
                    "isPartOfComposite": false
                },
                {
                    "name": "",
                    "id": "b59bbf61-dd32-4d06-a2e9-82a58f297f4a",
                    "path": "<Gamepad>/dpad/down",
                    "interactions": "",
                    "processors": "",
                    "groups": "",
                    "action": "D-Pad Down",
                    "isComposite": false,
                    "isPartOfComposite": false
                },
                {
                    "name": "",
                    "id": "c48d49b6-994c-4b43-b86d-f231e5918eb9",
                    "path": "<Keyboard>/leftArrow",
                    "interactions": "",
                    "processors": "",
                    "groups": "",
                    "action": "D-Pad Left",
                    "isComposite": false,
                    "isPartOfComposite": false
                },
                {
                    "name": "",
                    "id": "d7f1bd44-fe7d-4bac-8688-62c9fdf6c155",
                    "path": "<Gamepad>/dpad/left",
                    "interactions": "",
                    "processors": "",
                    "groups": "",
                    "action": "D-Pad Left",
                    "isComposite": false,
                    "isPartOfComposite": false
                },
                {
                    "name": "",
                    "id": "6ef5e666-ec2b-4e16-9261-287dfe1af750",
                    "path": "<Keyboard>/rightArrow",
                    "interactions": "",
                    "processors": "",
                    "groups": "",
                    "action": "D-Pad Right",
                    "isComposite": false,
                    "isPartOfComposite": false
                },
                {
                    "name": "",
                    "id": "202fc636-91ea-4afd-9361-06cca934231f",
                    "path": "<Gamepad>/dpad/right",
                    "interactions": "",
                    "processors": "",
                    "groups": "",
                    "action": "D-Pad Right",
                    "isComposite": false,
                    "isPartOfComposite": false
                },
                {
                    "name": "",
                    "id": "553772dd-c5de-4968-b262-208239efc8ad",
                    "path": "<Gamepad>/buttonSouth",
                    "interactions": "",
                    "processors": "",
                    "groups": "",
                    "action": "A",
                    "isComposite": false,
                    "isPartOfComposite": false
                },
                {
                    "name": "",
                    "id": "e32560e8-6a8d-4225-bd7d-2163104ebe14",
                    "path": "<Keyboard>/f",
                    "interactions": "",
                    "processors": "",
                    "groups": "",
                    "action": "A",
                    "isComposite": false,
                    "isPartOfComposite": false
                },
                {
                    "name": "",
                    "id": "a39267db-4d15-4f2f-8708-21c806c799c0",
                    "path": "<Keyboard>/space",
                    "interactions": "",
                    "processors": "",
                    "groups": "",
                    "action": "Jump",
                    "isComposite": false,
                    "isPartOfComposite": false
                },
                {
                    "name": "",
                    "id": "6ef3901c-4293-4052-b509-79520f7bcf7d",
                    "path": "<Gamepad>/buttonSouth",
                    "interactions": "",
                    "processors": "",
                    "groups": "",
                    "action": "Jump",
                    "isComposite": false,
                    "isPartOfComposite": false
                },
                {
                    "name": "",
                    "id": "4a4f843f-b01a-490c-9258-bc4063fd343b",
                    "path": "<Gamepad>/rightStickPress",
                    "interactions": "",
                    "processors": "",
                    "groups": "",
                    "action": "LockOn",
                    "isComposite": false,
                    "isPartOfComposite": false
                },
                {
                    "name": "",
                    "id": "f05aaf1f-607e-4216-adf6-0eceddb74be8",
                    "path": "<Keyboard>/q",
                    "interactions": "",
                    "processors": "",
                    "groups": "",
                    "action": "LockOn",
                    "isComposite": false,
                    "isPartOfComposite": false
                },
                {
                    "name": "",
                    "id": "aeb82467-be8c-4b08-ac3a-1f4034f58696",
                    "path": "<Gamepad>/leftShoulder",
                    "interactions": "",
                    "processors": "",
                    "groups": "",
                    "action": "LB",
                    "isComposite": false,
                    "isPartOfComposite": false
                },
                {
                    "name": "",
                    "id": "162de033-9bb7-4743-bd49-3f6a0fa4b07f",
                    "path": "<Keyboard>/t",
                    "interactions": "",
                    "processors": "",
                    "groups": "",
                    "action": "LB",
                    "isComposite": false,
                    "isPartOfComposite": false
                },
                {
                    "name": "",
                    "id": "307ccec8-503b-40c9-aa89-ff722519f52f",
                    "path": "<Gamepad>/start",
                    "interactions": "",
                    "processors": "",
                    "groups": "",
                    "action": "Inventory",
                    "isComposite": false,
                    "isPartOfComposite": false
                },
                {
                    "name": "",
                    "id": "687d9099-1d23-4ef3-bc64-5888e45f9fbc",
                    "path": "<Keyboard>/escape",
                    "interactions": "",
                    "processors": "",
                    "groups": "",
                    "action": "Inventory",
                    "isComposite": false,
                    "isPartOfComposite": false
                },
                {
                    "name": "",
                    "id": "aaa1457c-444c-4e20-a217-13b438afe242",
                    "path": "<Keyboard>/leftCtrl",
                    "interactions": "",
                    "processors": "",
                    "groups": "",
                    "action": "Block",
                    "isComposite": false,
                    "isPartOfComposite": false
                },
                {
                    "name": "",
                    "id": "d8c26c4e-2bcc-423c-bfd3-f24127cc955d",
                    "path": "<Keyboard>/e",
                    "interactions": "Hold",
                    "processors": "",
                    "groups": "",
                    "action": "Critical Attack",
                    "isComposite": false,
                    "isPartOfComposite": false
                },
                {
                    "name": "",
                    "id": "1f44cc43-5dfe-4773-a4c3-0bb15684f922",
                    "path": "<Gamepad>/rightShoulder",
                    "interactions": "Hold",
                    "processors": "",
                    "groups": "",
                    "action": "Critical Attack",
                    "isComposite": false,
                    "isPartOfComposite": false
                },
                {
                    "name": "",
                    "id": "b1d7c0fe-7de3-4b61-9d0d-02213276b724",
                    "path": "<Mouse>/leftButton",
                    "interactions": "Hold",
                    "processors": "",
                    "groups": "",
                    "action": "Critical Attack",
                    "isComposite": false,
                    "isPartOfComposite": false
                },
                {
                    "name": "",
                    "id": "d9dccd95-fce7-4ed4-a1ab-faa47bcd39c1",
                    "path": "<Gamepad>/leftTrigger",
                    "interactions": "",
                    "processors": "",
                    "groups": "",
                    "action": "LT",
                    "isComposite": false,
                    "isPartOfComposite": false
                },
                {
                    "name": "",
                    "id": "e299a915-ff25-4d20-8d66-19d78a5a339c",
                    "path": "<Keyboard>/z",
                    "interactions": "",
                    "processors": "",
                    "groups": "",
                    "action": "LT",
                    "isComposite": false,
                    "isPartOfComposite": false
                },
                {
                    "name": "",
                    "id": "8e56c4b9-fb19-487d-8ede-155a3c340c91",
                    "path": "<Keyboard>/c",
                    "interactions": "",
                    "processors": "",
                    "groups": "",
                    "action": "Crouch",
                    "isComposite": false,
                    "isPartOfComposite": false
                }
            ]
        }
    ],
    "controlSchemes": []
}